{
  "relations": [
    {
      "shape": "betterwithmods_core:log",
      "items": [
        {
          "item": "minecraft:birch_log"
        }
      ]
    },
    {
      "shape": "betterwithmods_core:plank",
      "items": [
        {
          "item": "minecraft:birch_planks"
        }
      ]
    }
  ]
}
