{
  "block.mechanical.creak": {
    "category": "block",
    "sounds": [
      "betterwithmods_mechanist:mechanical/creak"
    ],
    "subtitle": "subtitles.betterwithmods_mechanist.mechanical.creak"
  }
}
