{
  "conditions": [
    {
      "type": "forge:not",
      "value": {
        "type": "betterwithmods_mechanist:config",
        "enabled": "redstone_lamp"
      }
    }
  ],
  "type": "crafting_shapeless",
  "group": "redstone_lamp",
  "ingredients": [
    {
      "tag": "forge:dyes/brown"
    },
    {
      "tag": "betterwithmods_mechanist:redstone_lamp"
    }
  ],
  "result": {
    "item": "betterwithmods_mechanist:brown_redstone_lamp"
  }
}


