{
  "credit": "Made with Blockbench",
  "parent": "block/block",
  "textures": {
    "particle": "#side"
  },
  "elements": [
    {
      "from": [2, 0, 2],
      "to": [14, 2, 14],
      "faces": {
        "north": {"uv": [2, 14, 14, 16], "texture": "#side"},
        "east": {"uv": [2, 14, 14, 16], "texture": "#side"},
        "south": {"uv": [2, 14, 14, 16], "texture": "#side"},
        "west": {"uv": [2, 14, 14, 16], "texture": "#side"},
        "up": {"uv": [2, 2, 14, 14], "texture": "#top"},
        "down": {"uv": [2, 2, 14, 14], "texture": "#bottom", "cullface": "down"}
      }
    },
    {
      "from": [3, 2, 0],
      "to": [13, 14, 3],
      "faces": {
        "north": {"uv": [3, 2, 13, 14], "texture": "#side"},
        "south": {"uv": [3, 2, 13, 14], "texture": "#side"},
        "up": {"uv": [3, 0, 13, 3], "texture": "#top"},
        "down": {"uv": [3, 13, 13, 16], "texture": "#bottom"}
      }
    },
    {
      "from": [3, 2, 13],
      "to": [13, 14, 16],
      "faces": {
        "north": {"uv": [3, 2, 13, 14], "texture": "#side"},
        "south": {"uv": [3, 2, 13, 14], "texture": "#side"},
        "up": {"uv": [3, 13, 13, 16], "texture": "#top"},
        "down": {"uv": [3, 0, 13, 3], "texture": "#bottom"}
      }
    },
    {
      "from": [0, 2, 0],
      "to": [3, 14, 16],
      "faces": {
        "north": {"uv": [13, 2, 16, 14], "texture": "#side"},
        "east": {"uv": [0, 2, 16, 14], "texture": "#side"},
        "south": {"uv": [0, 2, 3, 14], "texture": "#side"},
        "west": {"uv": [0, 2, 16, 14], "texture": "#side"},
        "up": {"uv": [0, 0, 3, 16], "texture": "#top"},
        "down": {"uv": [0, 0, 3, 16], "texture": "#bottom"}
      }
    },
    {
      "from": [13, 2, 0],
      "to": [16, 14, 16],
      "faces": {
        "north": {"uv": [0, 2, 3, 14], "texture": "#side"},
        "east": {"uv": [0, 2, 16, 14], "texture": "#side"},
        "south": {"uv": [13, 2, 16, 14], "texture": "#side"},
        "west": {"uv": [0, 2, 16, 14], "texture": "#side"},
        "up": {"uv": [13, 0, 16, 16], "texture": "#top"},
        "down": {"uv": [13, 0, 16, 16], "texture": "#bottom"}
      }
    },
    {
      "from": [3, 14, 1],
      "to": [13, 16, 3],
      "faces": {
        "north": {"uv": [3, 0, 13, 2], "texture": "#side"},
        "south": {"uv": [3, 0, 13, 2], "texture": "#side"},
        "up": {"uv": [3, 1, 13, 3], "texture": "#top"}
      }
    },
    {
      "from": [3, 14, 13],
      "to": [13, 16, 15],
      "faces": {
        "north": {"uv": [3, 0, 13, 2], "texture": "#side"},
        "south": {"uv": [3, 0, 13, 2], "texture": "#side"},
        "up": {"uv": [3, 13, 13, 15], "texture": "#top"}
      }
    },
    {
      "from": [1, 14, 1],
      "to": [3, 16, 15],
      "faces": {
        "north": {"uv": [13, 0, 15, 2], "texture": "#top"},
        "east": {"uv": [1, 0, 15, 2], "texture": "#side"},
        "south": {"uv": [1, 0, 3, 2], "texture": "#side"},
        "west": {"uv": [1, 0, 15, 2], "texture": "#side"},
        "up": {"uv": [1, 1, 3, 15], "texture": "#top"}
      }
    },
    {
      "from": [13, 14, 1],
      "to": [15, 16, 15],
      "faces": {
        "north": {"uv": [1, 0, 3, 2], "texture": "#side"},
        "east": {"uv": [1, 0, 15, 2], "texture": "#side"},
        "south": {"uv": [13, 0, 15, 2], "texture": "#side"},
        "west": {"uv": [1, 0, 15, 2], "texture": "#side"},
        "up": {"uv": [13, 1, 15, 15], "texture": "#top"}
      }
    }
  ],
  "display": {},
  "groups": [
    {
      "name": "pot",
      "children": [0, 1, 2, 3, 4, 5, 6, 7, 8]
    }
  ]
}
