{
  "parent": "block/cube",
  "textures": {
    "up": "#input",
    "down": "#side",
    "north": "#side",
    "south": "#side",
    "east": "#side",
    "west": "#side",
    "particle": "#side"
  }
}
