{
	"credit": "Made with Blockbench",
	"parent": "block/block",
	"textures": {
		"side": "block/stone_slab_side",
		"particle": "block/stone_slab_side",
		"top": "block/stone_slab_top",
		"anchor": "block/iron_block"
	},
	"elements": [
		{
			"from": [0, 0, 0],
			"to": [16, 6, 16],
			"faces": {
				"north": {"uv": [0, 0, 16, 6], "texture": "#side"},
				"east": {"uv": [0, 0, 16, 6], "texture": "#side"},
				"south": {"uv": [0, 0, 16, 6], "texture": "#side"},
				"west": {"uv": [0, 0, 16, 6], "texture": "#side"},
				"up": {"uv": [0, 0, 16, 16], "texture": "#top"},
				"down": {"uv": [0, 0, 16, 16], "texture": "#top"}
			}
		},
		{
			"from": [6, 6, 6],
			"to": [10, 10, 10],
			"faces": {
				"north": {"uv": [6, 6, 10, 10], "rotation": 180, "texture": "#anchor"},
				"east": {"uv": [6, 6, 10, 10], "rotation": 180, "texture": "#anchor"},
				"south": {"uv": [6, 6, 10, 10], "rotation": 180, "texture": "#anchor"},
				"west": {"uv": [6, 6, 10, 10], "rotation": 180, "texture": "#anchor"},
				"up": {"uv": [6, 6, 10, 10], "rotation": 180, "texture": "#anchor"},
				"down": {"uv": [0, 0, 4, 4], "rotation": 180, "texture": "#anchor"}
			}
		}
	]
}
