{
  "credit": "Made with Blockbench",
  "parent": "block/block",
  "textures": {
    "bottom": "betterwithmods_mechanist:block/mining_charge/bottom",
    "particle": "betterwithmods_mechanist:block/mining_charge/side",
    "side": "betterwithmods_mechanist:block/mining_charge/side",
    "top": "betterwithmods_mechanist:block/mining_charge/top"
  },
  "elements": [
    {
      "from": [0, 0, 0],
      "to": [16, 8, 16],
      "faces": {
        "north": {"uv": [0, 0, 16, 8], "rotation": 180, "texture": "#top"},
        "east": {"uv": [0, 0, 8, 16], "rotation": 90, "texture": "#side"},
        "south": {"uv": [0, 0, 16, 8], "texture": "#bottom"},
        "west": {"uv": [0, 0, 8, 16], "rotation": 270, "texture": "#side"},
        "up": {"uv": [0, 0, 16, 16], "texture": "#side"},
        "down": {"uv": [0, 0, 16, 16], "rotation": 180, "texture": "#side"}
      }
    }
  ]
}
