{
	"credit": "Made with Blockbench",
	"parent": "block/block",
	"elements": [
		{
			"from": [6, 0, 6],
			"to": [10, 14, 10],
			"faces": {
				"north": {"uv": [6, 2, 9, 16], "texture": "#all"},
				"east": {"uv": [6, 2, 9, 16], "texture": "#all"},
				"south": {"uv": [6, 2, 9, 16], "texture": "#all"},
				"west": {"uv": [6, 2, 9, 16], "texture": "#all"},
				"up": {"uv": [7, 2, 9, 16], "texture": "#all"},
				"down": {"uv": [7, 7, 9, 9], "texture": "#all"}
			}
		},
		{
			"from": [0, 14, 0],
			"to": [16, 16, 16],
			"faces": {
				"north": {"uv": [0, 0, 16, 2], "texture": "#all"},
				"east": {"uv": [0, 0, 16, 2], "texture": "#all"},
				"south": {"uv": [0, 0, 16, 2], "texture": "#all"},
				"west": {"uv": [0, 0, 16, 2], "texture": "#all"},
				"up": {"uv": [0, 0, 16, 16], "texture": "#all"},
				"down": {"uv": [0, 0, 16, 16], "texture": "#all"}
			}
		}
	]
}
