{
  "conditions": [
    {
      "type": "betterwithmods_mechanist:config",
      "enabled": "redstone_lamp"
    }
  ],
  "type": "crafting_shaped",
  "pattern": [
    " P ",
    "PFP",
    " R "
  ],
  "key": {
    "R": {
      "tag": "forge:dusts/redstone"
    },
    "F": {
      "item": "betterwithmods_mechanist:filament"
    },
    "P": {
      "item": "minecraft:orange_stained_glass_pane"
    }
  },
  "result": {
    "item": "betterwithmods_mechanist:orange_redstone_lamp"
  }
}
