{
  "parent": "block/block",
  "elements": [
    {
      "from": [
        0,
        0,
        8
      ],
      "to": [
        8,
        8,
        16
      ],
      "faces": {
        "down": {
          "texture": "#down"
        },
        "up": {
          "texture": "#up"
        },
        "north": {
          "texture": "#north"
        },
        "south": {
          "texture": "#south"
        },
        "west": {
          "texture": "#west"
        },
        "east": {
          "texture": "#east"
        }
      }
    }
  ]
}
