{
  "relations": [
    {
      "shape": "betterwithmods_core:bark",
      "items": [
        {
          "item": "betterwithmods_mechanist:bark",
          "nbt": {
            "BlockEntityTag": {"parent": {"Name": "minecraft:birch_log"}}
          }
        }
      ]
    },
    {
      "shape": "betterwithmods_core:dust",
      "items": [
        {
          "item": "betterwithmods_mechanist:saw_dust"
        }
      ]
    }
  ]
}
