{
  "variants": {
    "facing=north": {
      "model": "betterwithmods_mechanist:block/dynamic/chair/chair_rock",
      "uvlock": true
    },
    "facing=south": {
      "model": "betterwithmods_mechanist:block/dynamic/chair/chair_rock",
      "y": 180,
      "uvlock": true
    },
    "facing=west": {
      "model": "betterwithmods_mechanist:block/dynamic/chair/chair_rock",
      "y": 270,
      "uvlock": true
    },
    "facing=east": {
      "model": "betterwithmods_mechanist:block/dynamic/chair/chair_rock",
      "y": 90,
      "uvlock": true
    }
  }
}
