{
  "multipart": [
    {
      "when": {
        "facing": "down"
      },
      "apply": {
        "model": "betterwithmods_mechanist:block/mech/gearbox/gearbox_broken",
        "uvlock": true,
        "x": 180
      }
    },
    {
      "when": {
        "facing": "up"
      },
      "apply": {
        "model": "betterwithmods_mechanist:block/mech/gearbox/gearbox_broken",
        "uvlock": true
      }
    },
    {
      "when": {
        "facing": "north"
      },
      "apply": {
        "model": "betterwithmods_mechanist:block/mech/gearbox/gearbox_broken",
        "x": 270,
        "y": 180,
        "uvlock": true
      }
    },
    {
      "when": {
        "facing": "south"
      },
      "apply": {
        "model": "betterwithmods_mechanist:block/mech/gearbox/gearbox_broken",
        "x": 270,
        "uvlock": true
      }
    },
    {
      "when": {
        "facing": "west"
      },
      "apply": {
        "model": "betterwithmods_mechanist:block/mech/gearbox/gearbox_broken",
        "x": 270,
        "y": 90,
        "uvlock": true
      }
    },
    {
      "when": {
        "facing": "east"
      },
      "apply": {
        "model": "betterwithmods_mechanist:block/mech/gearbox/gearbox_broken",
        "x": 270,
        "y": 270,
        "uvlock": true
      }
    },
    {
      "when": {
        "up": true
      },
      "apply": {
        "model": "betterwithmods_mechanist:block/mech/gearbox/gearbox_broken_output"
      }
    },
    {
      "when": {
        "down": true
      },
      "apply": {
        "model": "betterwithmods_mechanist:block/mech/gearbox/gearbox_broken_output",
        "x": 180
      }
    },
    {
      "when": {
        "north": true
      },
      "apply": {
        "model": "betterwithmods_mechanist:block/mech/gearbox/gearbox_broken_output",
        "x": 270,
        "y": 180
      }
    },
    {
      "when": {
        "south": true
      },
      "apply": {
        "model": "betterwithmods_mechanist:block/mech/gearbox/gearbox_broken_output",
        "x": 270
      }
    },
    {
      "when": {
        "east": true
      },
      "apply": {
        "model": "betterwithmods_mechanist:block/mech/gearbox/gearbox_broken_output",
        "x": 270,
        "y": 270
      }
    },
    {
      "when": {
        "west": true
      },
      "apply": {
        "model": "betterwithmods_mechanist:block/mech/gearbox/gearbox_broken_output",
        "x": 270,
        "y": 90
      }
    }
  ]
}
