{
  "variants": {
    "orientation=north_up": {
      "model": "betterwithmods_mechanist:block/dynamic/moulding/moulding_wood",
      "x": 180,
      "y": 270,
      "uvlock": true
    },
    "orientation=south_up": {
      "model": "betterwithmods_mechanist:block/dynamic/moulding/moulding_wood",
      "x": 180,
      "y": 0,
      "uvlock": true
    },
    "orientation=west_up": {
      "model": "betterwithmods_mechanist:block/dynamic/moulding/moulding_wood",
      "x": 180,
      "y": 180,
      "uvlock": true
    },
    "orientation=east_up": {
      "model": "betterwithmods_mechanist:block/dynamic/moulding/moulding_wood",
      "x": 180,
      "y": 90,
      "uvlock": true
    },
    "orientation=north_down": {
      "model": "betterwithmods_mechanist:block/dynamic/moulding/moulding_wood",
      "x": 0,
      "y": 270,
      "uvlock": true
    },
    "orientation=south_down": {
      "model": "betterwithmods_mechanist:block/dynamic/moulding/moulding_wood",
      "x": 0,
      "y": 0,
      "uvlock": true
    },
    "orientation=west_down": {
      "model": "betterwithmods_mechanist:block/dynamic/moulding/moulding_wood",
      "x": 0,
      "y": 180,
      "uvlock": true
    },
    "orientation=east_down": {
      "model": "betterwithmods_mechanist:block/dynamic/moulding/moulding_wood",
      "x": 0,
      "y": 90,
      "uvlock": true
    },
    "orientation=south_west": {
      "model": "betterwithmods_mechanist:block/dynamic/moulding/moulding_wood",
      "x": 90,
      "y": 90,
      "uvlock": true
    },
    "orientation=north_west": {
      "model": "betterwithmods_mechanist:block/dynamic/moulding/moulding_wood",
      "x": 90,
      "y": 180,
      "uvlock": true
    },
    "orientation=north_east": {
      "model": "betterwithmods_mechanist:block/dynamic/moulding/moulding_wood",
      "x": 90,
      "y": 270,
      "uvlock": true
    },
    "orientation=south_east": {
      "model": "betterwithmods_mechanist:block/dynamic/moulding/moulding_wood",
      "x": 90,
      "y": 0,
      "uvlock": true
    }
  }
}
