{
  "variants": {
    "lit=false": { "model": "betterwithmods_mechanist:block/lamp/yellow_redstone_lamp" },
    "lit=true": { "model": "betterwithmods_mechanist:block/lamp/yellow_redstone_lamp_on" }
  }
}
