{
  "parent": "betterwithmods_mechanist:block/mech/joint",
  "textures": {
    "up": "betterwithmods_mechanist:block/clutchbox/input",
    "side": "betterwithmods_mechanist:block/clutchbox/side_on"
  }
}
